[
  {
    "name": "org.slf4j/slf4j-api",
    "version": "1.7.30"
  },
  {
    "name": "org.apache.logging.log4j/log4j-api",
    "version": "2.13.2"
  },
  {
    "name": "org.apache.logging.log4j/log4j-slf4j-impl",
    "version": "2.13.2"
  },
  {
    "name": "org.apache.logging.log4j/log4j-core",
    "version": "2.13.2"
  }
]
