{
  "version": "0.0.1",
  "analyzer": {
    "id": "gemnasium-maven"
  },
  "components": [
    {
      "project": {
        "path": "."
      },
      "package_type": "maven",
      "package_manager": "sbt",
      "language": "Scala",
      "files": [
        {
          "type": "sbom",
          "path": "gl-sbom-maven-sbt.cdx.json"
        },
        {
          "type": "input",
          "path": "build.sbt"
        }
      ]
    },
    {
      "project": {
        "path": "proj1"
      },
      "package_type": "maven",
      "package_manager": "sbt",
      "language": "Scala",
      "files": [
        {
          "type": "sbom",
          "path": "proj1/gl-sbom-maven-sbt.cdx.json"
        },
        {
          "type": "input",
          "path": "proj1/build.sbt"
        }
      ]
    },
    {
      "project": {
        "path": "proj2"
      },
      "package_type": "maven",
      "package_manager": "sbt",
      "language": "Scala",
      "files": [
        {
          "type": "sbom",
          "path": "proj2/gl-sbom-maven-sbt.cdx.json"
        },
        {
          "type": "input",
          "path": "proj2/build.sbt"
        }
      ]
    }
  ],
  "timestamp": "2022-04-08T08:42:14Z"
}
