{
  "version": "14.0.4",
  "vulnerabilities": [
    {
      "id": "68954283c67f486ecad94095a2e30a1131f3971d5262ecbb9fb55481c95433c0",
      "category": "dependency_scanning",
      "name": "SQL Injection",
      "message": "SQL Injection in django",
      "description": "Due to an error in shallow key transformation, key and index lookups for `django.contrib.postgres.fields.JSONField`, and key lookups for `django.contrib.postgres.fields.HStoreField`, were subject to SQL injection. This could, for example, be exploited via crafted use of `OR 1=1` in a key or index name to return all records, using a suitably crafted dictionary, with dictionary expansion, as the `**kwargs` passed to the `QuerySet.filter()` function.",
      "cve": "poetry.lock:django:gemnasium:1c876f07-617f-4ba9-8ea3-a871d14bcde2",
      "severity": "Critical",
      "solution": "Upgrade to versions 1.11.23, 2.1.11, 2.2.4 or above.",
      "scanner": {
        "id": "gemnasium",
        "name": "Gemnasium"
      },
      "location": {
        "file": "poetry.lock",
        "dependency": {
          "package": {
            "name": "django"
          },
          "version": "1.11.4"
        }
      },
      "identifiers": [
        {
          "type": "gemnasium",
          "name": "Gemnasium-1c876f07-617f-4ba9-8ea3-a871d14bcde2",
          "value": "1c876f07-617f-4ba9-8ea3-a871d14bcde2",
          "url": "https://gitlab.com/gitlab-org/security-products/gemnasium-db/-/blob/v1.2.142/pypi/Django/CVE-2019-14234.yml"
        },
        {
          "type": "cve",
          "name": "CVE-2019-14234",
          "value": "CVE-2019-14234",
          "url": "https://cve.mitre.org/cgi-bin/cvename.cgi?name=CVE-2019-14234"
        }
      ],
      "links": [
        {
          "url": "https://docs.djangoproject.com/en/dev/releases/security/"
        },
        {
          "url": "https://nvd.nist.gov/vuln/detail/CVE-2019-14234"
        },
        {
          "url": "https://www.djangoproject.com/weblog/2019/aug/01/security-releases/"
        }
      ],
      "details": {
        "vulnerable_package": {
          "type": "text",
          "name": "Vulnerable Package",
          "value": "django:1.11.4"
        }
      }
    },
    {
      "id": "2c7ecb5da205719226674610a54183877e28567328d5a1c4ab611e75ee9022b2",
      "category": "dependency_scanning",
      "name": "Weak Password Recovery Mechanism for Forgotten Password",
      "message": "Weak Password Recovery Mechanism for Forgotten Password in django",
      "description": "Django allows account takeover. A suitably crafted email address (that is equal to an existing user's email address after case transformation of Unicode characters) would allow an attacker to be sent a password reset token for the matched user account. (One mitigation in the new releases is to send password reset tokens only to the registered user email address.)",
      "cve": "poetry.lock:django:gemnasium:e1db52dc-7f84-4281-8b82-6a64da18a721",
      "severity": "Critical",
      "solution": "Upgrade to versions 1.11.27, 2.2.9, 3.0.1 or above.",
      "scanner": {
        "id": "gemnasium",
        "name": "Gemnasium"
      },
      "location": {
        "file": "poetry.lock",
        "dependency": {
          "package": {
            "name": "django"
          },
          "version": "1.11.4"
        }
      },
      "identifiers": [
        {
          "type": "gemnasium",
          "name": "Gemnasium-e1db52dc-7f84-4281-8b82-6a64da18a721",
          "value": "e1db52dc-7f84-4281-8b82-6a64da18a721",
          "url": "https://gitlab.com/gitlab-org/security-products/gemnasium-db/-/blob/v1.2.142/pypi/Django/CVE-2019-19844.yml"
        },
        {
          "type": "cve",
          "name": "CVE-2019-19844",
          "value": "CVE-2019-19844",
          "url": "https://cve.mitre.org/cgi-bin/cvename.cgi?name=CVE-2019-19844"
        }
      ],
      "links": [
        {
          "url": "https://docs.djangoproject.com/en/dev/releases/security/"
        },
        {
          "url": "https://nvd.nist.gov/vuln/detail/CVE-2019-19844"
        },
        {
          "url": "https://www.djangoproject.com/weblog/2019/dec/18/security-releases/"
        }
      ],
      "details": {
        "vulnerable_package": {
          "type": "text",
          "name": "Vulnerable Package",
          "value": "django:1.11.4"
        }
      }
    },
    {
      "id": "7390e33560b0a20bd93a43e892235592d6b065473491b3538e1267a7e5e459da",
      "category": "dependency_scanning",
      "name": "SQL Injection",
      "message": "SQL Injection in django",
      "description": "Django allows SQL Injection if untrusted data is used as a delimiter (e.g., in Django applications that offer downloads of data as a series of rows with a user-specified column delimiter). By passing a suitably crafted delimiter to a `contrib.postgres.aggregates.StringAgg` instance, it was possible to break escaping and inject malicious SQL.",
      "cve": "poetry.lock:django:gemnasium:ea400310-29db-4c48-8236-42d462d1de1c",
      "severity": "Critical",
      "solution": "Upgrade to versions 1.11.28, 2.2.10, 3.0.3 or above.",
      "scanner": {
        "id": "gemnasium",
        "name": "Gemnasium"
      },
      "location": {
        "file": "poetry.lock",
        "dependency": {
          "package": {
            "name": "django"
          },
          "version": "1.11.4"
        }
      },
      "identifiers": [
        {
          "type": "gemnasium",
          "name": "Gemnasium-ea400310-29db-4c48-8236-42d462d1de1c",
          "value": "ea400310-29db-4c48-8236-42d462d1de1c",
          "url": "https://gitlab.com/gitlab-org/security-products/gemnasium-db/-/blob/v1.2.142/pypi/Django/CVE-2020-7471.yml"
        },
        {
          "type": "cve",
          "name": "CVE-2020-7471",
          "value": "CVE-2020-7471",
          "url": "https://cve.mitre.org/cgi-bin/cvename.cgi?name=CVE-2020-7471"
        }
      ],
      "links": [
        {
          "url": "https://docs.djangoproject.com/en/3.0/releases/security/"
        },
        {
          "url": "https://nvd.nist.gov/vuln/detail/CVE-2020-7471"
        },
        {
          "url": "https://www.djangoproject.com/weblog/2020/feb/03/security-releases/"
        }
      ],
      "details": {
        "vulnerable_package": {
          "type": "text",
          "name": "Vulnerable Package",
          "value": "django:1.11.4"
        }
      }
    },
    {
      "id": "9bca97377490dbcaeffc43878c350062ce47cdd3a65e5853915c2e7f1684749c",
      "category": "dependency_scanning",
      "name": "Buffer Overflow",
      "message": "Buffer Overflow in pillow",
      "description": "`libImaging/SgiRleDecode.c` in Pillow has an SGI buffer overflow.",
      "cve": "poetry.lock:pillow:gemnasium:752aa944-4ae1-4f71-b11b-21c4028770ed",
      "severity": "Critical",
      "solution": "Upgrade to version 6.2.2 or above.",
      "scanner": {
        "id": "gemnasium",
        "name": "Gemnasium"
      },
      "location": {
        "file": "poetry.lock",
        "dependency": {
          "package": {
            "name": "pillow"
          },
          "version": "3.3.1"
        }
      },
      "identifiers": [
        {
          "type": "gemnasium",
          "name": "Gemnasium-752aa944-4ae1-4f71-b11b-21c4028770ed",
          "value": "752aa944-4ae1-4f71-b11b-21c4028770ed",
          "url": "https://gitlab.com/gitlab-org/security-products/gemnasium-db/-/blob/v1.2.142/pypi/Pillow/CVE-2020-5311.yml"
        },
        {
          "type": "cve",
          "name": "CVE-2020-5311",
          "value": "CVE-2020-5311",
          "url": "https://cve.mitre.org/cgi-bin/cvename.cgi?name=CVE-2020-5311"
        }
      ],
      "links": [
        {
          "url": "https://nvd.nist.gov/vuln/detail/CVE-2020-5311"
        }
      ],
      "details": {
        "vulnerable_package": {
          "type": "text",
          "name": "Vulnerable Package",
          "value": "pillow:3.3.1"
        }
      }
    },
    {
      "id": "4125afdc4059b957c69d43d357ee0ca61e009adc1e2a161ece4809c9664cb8fc",
      "category": "dependency_scanning",
      "name": "Buffer Overflow",
      "message": "Buffer Overflow in pillow",
      "description": "`libImaging/PcxDecode.c` in Pillow before 6.2.2 has a PCX P mode buffer overflow.",
      "cve": "poetry.lock:pillow:gemnasium:a8aa7099-da93-4ca0-94be-f52295393d0d",
      "severity": "Critical",
      "solution": "Upgrade to version 6.2.2 or above.",
      "scanner": {
        "id": "gemnasium",
        "name": "Gemnasium"
      },
      "location": {
        "file": "poetry.lock",
        "dependency": {
          "package": {
            "name": "pillow"
          },
          "version": "3.3.1"
        }
      },
      "identifiers": [
        {
          "type": "gemnasium",
          "name": "Gemnasium-a8aa7099-da93-4ca0-94be-f52295393d0d",
          "value": "a8aa7099-da93-4ca0-94be-f52295393d0d",
          "url": "https://gitlab.com/gitlab-org/security-products/gemnasium-db/-/blob/v1.2.142/pypi/Pillow/CVE-2020-5312.yml"
        },
        {
          "type": "cve",
          "name": "CVE-2020-5312",
          "value": "CVE-2020-5312",
          "url": "https://cve.mitre.org/cgi-bin/cvename.cgi?name=CVE-2020-5312"
        }
      ],
      "links": [
        {
          "url": "https://nvd.nist.gov/vuln/detail/CVE-2020-5312"
        }
      ],
      "details": {
        "vulnerable_package": {
          "type": "text",
          "name": "Vulnerable Package",
          "value": "pillow:3.3.1"
        }
      }
    },
    {
      "id": "386a93e84fd055c45f130a44a9b1bc887023998152cec28ffbb35cb1e9a09319",
      "category": "dependency_scanning",
      "name": "Improper Input Validation",
      "message": "Improper Input Validation in django",
      "description": "A call to the methods `chars()` or `words() in `django.utils.text.Truncator` with the argument `html=True` evaluates certain inputs extremely slowly due to a catastrophic backtracking vulnerability in a regular expression. The `chars()` and `words()` methods are used to implement the `truncatechars_html` and `truncatewords_html` template filters, which were thus vulnerable.",
      "cve": "poetry.lock:django:gemnasium:3fee86b0-d8c1-4c65-9242-7607562190ae",
      "severity": "High",
      "solution": "Upgrade to versions 1.11.23, 2.1.11, 2.2.4 or above.",
      "scanner": {
        "id": "gemnasium",
        "name": "Gemnasium"
      },
      "location": {
        "file": "poetry.lock",
        "dependency": {
          "package": {
            "name": "django"
          },
          "version": "1.11.4"
        }
      },
      "identifiers": [
        {
          "type": "gemnasium",
          "name": "Gemnasium-3fee86b0-d8c1-4c65-9242-7607562190ae",
          "value": "3fee86b0-d8c1-4c65-9242-7607562190ae",
          "url": "https://gitlab.com/gitlab-org/security-products/gemnasium-db/-/blob/v1.2.142/pypi/Django/CVE-2019-14232.yml"
        },
        {
          "type": "cve",
          "name": "CVE-2019-14232",
          "value": "CVE-2019-14232",
          "url": "https://cve.mitre.org/cgi-bin/cvename.cgi?name=CVE-2019-14232"
        }
      ],
      "links": [
        {
          "url": "https://docs.djangoproject.com/en/dev/releases/security/"
        },
        {
          "url": "https://nvd.nist.gov/vuln/detail/CVE-2019-14232"
        },
        {
          "url": "https://www.djangoproject.com/weblog/2019/aug/01/security-releases/"
        }
      ],
      "details": {
        "vulnerable_package": {
          "type": "text",
          "name": "Vulnerable Package",
          "value": "django:1.11.4"
        }
      }
    },
    {
      "id": "01c724fbd2f858e120918ddddda73d434d421c4116a8a863095f5deef125c4af",
      "category": "dependency_scanning",
      "name": "Denial-of-service",
      "message": "Denial-of-service in django",
      "description": "If passed certain inputs, `django.utils.encoding.uri_to_iri` could lead to significant memory usage due to a recursion when repercent-encoding invalid UTF-8 octet sequences.",
      "cve": "poetry.lock:django:gemnasium:49afe3f9-e7ab-4d52-ad25-6e04bfdd670d",
      "severity": "High",
      "solution": "Upgrade to versions 1.11.23, 2.1.11, 2.2.4 or above.",
      "scanner": {
        "id": "gemnasium",
        "name": "Gemnasium"
      },
      "location": {
        "file": "poetry.lock",
        "dependency": {
          "package": {
            "name": "django"
          },
          "version": "1.11.4"
        }
      },
      "identifiers": [
        {
          "type": "gemnasium",
          "name": "Gemnasium-49afe3f9-e7ab-4d52-ad25-6e04bfdd670d",
          "value": "49afe3f9-e7ab-4d52-ad25-6e04bfdd670d",
          "url": "https://gitlab.com/gitlab-org/security-products/gemnasium-db/-/blob/v1.2.142/pypi/Django/CVE-2019-14235.yml"
        },
        {
          "type": "cve",
          "name": "CVE-2019-14235",
          "value": "CVE-2019-14235",
          "url": "https://cve.mitre.org/cgi-bin/cvename.cgi?name=CVE-2019-14235"
        }
      ],
      "links": [
        {
          "url": "https://docs.djangoproject.com/en/dev/releases/security/"
        },
        {
          "url": "https://nvd.nist.gov/vuln/detail/CVE-2019-14235"
        },
        {
          "url": "https://www.djangoproject.com/weblog/2019/aug/01/security-releases/"
        }
      ],
      "details": {
        "vulnerable_package": {
          "type": "text",
          "name": "Vulnerable Package",
          "value": "django:1.11.4"
        }
      }
    },
    {
      "id": "321cf55561ee7a9efe9a34be00ffa3f821050084833d4bc9db998739739fc604",
      "category": "dependency_scanning",
      "name": "Improper Input Validation",
      "message": "Improper Input Validation in django",
      "description": "Due to the behaviour of the underlying HTMLParser, `django.utils.html.strip_tags` would be extremely slow to evaluate certain inputs containing large sequences of nested incomplete HTML entities.",
      "cve": "poetry.lock:django:gemnasium:4be2dbd8-301a-48cd-8ffd-db2edf367ac4",
      "severity": "High",
      "solution": "Upgrade to versions 1.11.23, 2.1.11, 2.2.4 or above.",
      "scanner": {
        "id": "gemnasium",
        "name": "Gemnasium"
      },
      "location": {
        "file": "poetry.lock",
        "dependency": {
          "package": {
            "name": "django"
          },
          "version": "1.11.4"
        }
      },
      "identifiers": [
        {
          "type": "gemnasium",
          "name": "Gemnasium-4be2dbd8-301a-48cd-8ffd-db2edf367ac4",
          "value": "4be2dbd8-301a-48cd-8ffd-db2edf367ac4",
          "url": "https://gitlab.com/gitlab-org/security-products/gemnasium-db/-/blob/v1.2.142/pypi/Django/CVE-2019-14233.yml"
        },
        {
          "type": "cve",
          "name": "CVE-2019-14233",
          "value": "CVE-2019-14233",
          "url": "https://cve.mitre.org/cgi-bin/cvename.cgi?name=CVE-2019-14233"
        }
      ],
      "links": [
        {
          "url": "https://docs.djangoproject.com/en/dev/releases/security/"
        },
        {
          "url": "https://nvd.nist.gov/vuln/detail/CVE-2019-14233"
        },
        {
          "url": "https://www.djangoproject.com/weblog/2019/aug/01/security-releases/"
        }
      ],
      "details": {
        "vulnerable_package": {
          "type": "text",
          "name": "Vulnerable Package",
          "value": "django:1.11.4"
        }
      }
    },
    {
      "id": "c0d5af4cc1d25383c4a613ee88ca5038f887fcd483bb64915214b49917b63b9d",
      "category": "dependency_scanning",
      "name": "SQL Injection",
      "message": "SQL Injection in django",
      "description": "Django allows SQL Injection if untrusted data is used as a tolerance parameter in GIS functions and aggregates on Oracle. By passing a suitably crafted tolerance to GIS functions and aggregates on Oracle, it was possible to break escaping and inject malicious SQL.",
      "cve": "poetry.lock:django:gemnasium:5295f830-9e63-4a53-a81c-c6a7745e7aa8",
      "severity": "High",
      "solution": "Upgrade to versions 1.11.29, 2.2.11, 3.0.4 or above.",
      "scanner": {
        "id": "gemnasium",
        "name": "Gemnasium"
      },
      "location": {
        "file": "poetry.lock",
        "dependency": {
          "package": {
            "name": "django"
          },
          "version": "1.11.4"
        }
      },
      "identifiers": [
        {
          "type": "gemnasium",
          "name": "Gemnasium-5295f830-9e63-4a53-a81c-c6a7745e7aa8",
          "value": "5295f830-9e63-4a53-a81c-c6a7745e7aa8",
          "url": "https://gitlab.com/gitlab-org/security-products/gemnasium-db/-/blob/v1.2.142/pypi/Django/CVE-2020-9402.yml"
        },
        {
          "type": "cve",
          "name": "CVE-2020-9402",
          "value": "CVE-2020-9402",
          "url": "https://cve.mitre.org/cgi-bin/cvename.cgi?name=CVE-2020-9402"
        }
      ],
      "links": [
        {
          "url": "https://docs.djangoproject.com/en/3.0/releases/security/"
        },
        {
          "url": "https://nvd.nist.gov/vuln/detail/CVE-2020-9402"
        },
        {
          "url": "https://www.djangoproject.com/weblog/2020/mar/04/security-releases/"
        }
      ],
      "details": {
        "vulnerable_package": {
          "type": "text",
          "name": "Vulnerable Package",
          "value": "django:1.11.4"
        }
      }
    },
    {
      "id": "4c75214b7191be148368ac77267e6a76e4085baf758d9df67d2f8d10381c1106",
      "category": "dependency_scanning",
      "name": "Uncontrolled Memory Consumption",
      "message": "Uncontrolled Memory Consumption in django",
      "description": "Django allows Uncontrolled Memory Consumption via a malicious attacker-supplied value to the `django.utils.numberformat.format()` function.",
      "cve": "poetry.lock:django:gemnasium:aa6b0729-ecca-4f48-8ea0-b364044c09cc",
      "severity": "High",
      "solution": "Upgrade to versions 1.11.20, 2.0.12, 2.1.7 or above.",
      "scanner": {
        "id": "gemnasium",
        "name": "Gemnasium"
      },
      "location": {
        "file": "poetry.lock",
        "dependency": {
          "package": {
            "name": "django"
          },
          "version": "1.11.4"
        }
      },
      "identifiers": [
        {
          "type": "gemnasium",
          "name": "Gemnasium-aa6b0729-ecca-4f48-8ea0-b364044c09cc",
          "value": "aa6b0729-ecca-4f48-8ea0-b364044c09cc",
          "url": "https://gitlab.com/gitlab-org/security-products/gemnasium-db/-/blob/v1.2.142/pypi/Django/CVE-2019-6975.yml"
        },
        {
          "type": "cve",
          "name": "CVE-2019-6975",
          "value": "CVE-2019-6975",
          "url": "https://cve.mitre.org/cgi-bin/cvename.cgi?name=CVE-2019-6975"
        }
      ],
      "links": [
        {
          "url": "http://www.securityfocus.com/bid/106964"
        },
        {
          "url": "https://cve.mitre.org/cgi-bin/cvename.cgi?name=CVE-2019-6975"
        },
        {
          "url": "https://cwe.mitre.org/data/definitions/789.html"
        },
        {
          "url": "https://docs.djangoproject.com/en/dev/releases/security/"
        },
        {
          "url": "https://groups.google.com/forum/#!topic/django-announce/WTwEAprR0IQ"
        },
        {
          "url": "https://lists.fedoraproject.org/archives/list/package-announce@lists.fedoraproject.org/message/66WMXHGBXD7GSM3PEXVCMCAGLMQYHZCU/"
        },
        {
          "url": "https://lists.fedoraproject.org/archives/list/package-announce@lists.fedoraproject.org/message/HVXDOVCXLD74SHR2BENGCE2OOYYYWJHZ/"
        },
        {
          "url": "https://nvd.nist.gov/vuln/detail/CVE-2019-6975"
        },
        {
          "url": "https://usn.ubuntu.com/3890-1/"
        },
        {
          "url": "https://www.djangoproject.com/weblog/2019/feb/11/security-releases/"
        },
        {
          "url": "https://www.openwall.com/lists/oss-security/2019/02/11/1"
        }
      ],
      "details": {
        "vulnerable_package": {
          "type": "text",
          "name": "Vulnerable Package",
          "value": "django:1.11.4"
        }
      }
    },
    {
      "id": "c0aae75396eb8fbb34d7f2312010f34f7604a0b5c3e66741bdf50bdfeee5209d",
      "category": "dependency_scanning",
      "name": "Out-of-bounds Read",
      "message": "Out-of-bounds Read in pillow",
      "description": "In `libImaging/SgiRleDecode.c` in Pillow, a number of out-of-bounds reads exist in the parsing of SGI image files, a different issue than CVE-2020-5311.",
      "cve": "poetry.lock:pillow:gemnasium:28afc1ef-24dd-49ad-9563-63bc4ea7d612",
      "severity": "High",
      "solution": "Upgrade to version 7.1.0 or above.",
      "scanner": {
        "id": "gemnasium",
        "name": "Gemnasium"
      },
      "location": {
        "file": "poetry.lock",
        "dependency": {
          "package": {
            "name": "pillow"
          },
          "version": "3.3.1"
        }
      },
      "identifiers": [
        {
          "type": "gemnasium",
          "name": "Gemnasium-28afc1ef-24dd-49ad-9563-63bc4ea7d612",
          "value": "28afc1ef-24dd-49ad-9563-63bc4ea7d612",
          "url": "https://gitlab.com/gitlab-org/security-products/gemnasium-db/-/blob/v1.2.142/pypi/Pillow/CVE-2020-11538.yml"
        },
        {
          "type": "cve",
          "name": "CVE-2020-11538",
          "value": "CVE-2020-11538",
          "url": "https://cve.mitre.org/cgi-bin/cvename.cgi?name=CVE-2020-11538"
        }
      ],
      "links": [
        {
          "url": "https://nvd.nist.gov/vuln/detail/CVE-2020-11538"
        }
      ],
      "details": {
        "vulnerable_package": {
          "type": "text",
          "name": "Vulnerable Package",
          "value": "pillow:3.3.1"
        }
      }
    },
    {
      "id": "0c82b1dabe2d6648f740dea0152ab6db974ffd49965c7a768909119e6b671531",
      "category": "dependency_scanning",
      "name": "Integer Overflow or Wraparound",
      "message": "Integer Overflow or Wraparound in pillow",
      "description": "`libImaging/TiffDecode.c` in Pillow has a TIFF decoding integer overflow, related to `realloc`.",
      "cve": "poetry.lock:pillow:gemnasium:31782843-af3d-4bf2-8e87-8721b812a3b8",
      "severity": "High",
      "solution": "Upgrade to version 6.2.2 or above.",
      "scanner": {
        "id": "gemnasium",
        "name": "Gemnasium"
      },
      "location": {
        "file": "poetry.lock",
        "dependency": {
          "package": {
            "name": "pillow"
          },
          "version": "3.3.1"
        }
      },
      "identifiers": [
        {
          "type": "gemnasium",
          "name": "Gemnasium-31782843-af3d-4bf2-8e87-8721b812a3b8",
          "value": "31782843-af3d-4bf2-8e87-8721b812a3b8",
          "url": "https://gitlab.com/gitlab-org/security-products/gemnasium-db/-/blob/v1.2.142/pypi/Pillow/CVE-2020-5310.yml"
        },
        {
          "type": "cve",
          "name": "CVE-2020-5310",
          "value": "CVE-2020-5310",
          "url": "https://cve.mitre.org/cgi-bin/cvename.cgi?name=CVE-2020-5310"
        }
      ],
      "links": [
        {
          "url": "https://nvd.nist.gov/vuln/detail/CVE-2020-5310"
        }
      ],
      "details": {
        "vulnerable_package": {
          "type": "text",
          "name": "Vulnerable Package",
          "value": "pillow:3.3.1"
        }
      }
    },
    {
      "id": "c4a5bf8639649948b8287d3f476da099521ae63cb424e71cac6d7880b57ae605",
      "category": "dependency_scanning",
      "name": "Buffer Overflow",
      "message": "Buffer Overflow in pillow",
      "description": "`libImaging/FliDecode.c` in Pillow has an FLI buffer overflow.",
      "cve": "poetry.lock:pillow:gemnasium:69b4d580-af80-4217-a7a2-cd1c02c1e5e1",
      "severity": "High",
      "solution": "Upgrade to version 6.2.2 or above.",
      "scanner": {
        "id": "gemnasium",
        "name": "Gemnasium"
      },
      "location": {
        "file": "poetry.lock",
        "dependency": {
          "package": {
            "name": "pillow"
          },
          "version": "3.3.1"
        }
      },
      "identifiers": [
        {
          "type": "gemnasium",
          "name": "Gemnasium-69b4d580-af80-4217-a7a2-cd1c02c1e5e1",
          "value": "69b4d580-af80-4217-a7a2-cd1c02c1e5e1",
          "url": "https://gitlab.com/gitlab-org/security-products/gemnasium-db/-/blob/v1.2.142/pypi/Pillow/CVE-2020-5313.yml"
        },
        {
          "type": "cve",
          "name": "CVE-2020-5313",
          "value": "CVE-2020-5313",
          "url": "https://cve.mitre.org/cgi-bin/cvename.cgi?name=CVE-2020-5313"
        }
      ],
      "links": [
        {
          "url": "https://nvd.nist.gov/vuln/detail/CVE-2020-5313"
        }
      ],
      "details": {
        "vulnerable_package": {
          "type": "text",
          "name": "Vulnerable Package",
          "value": "pillow:3.3.1"
        }
      }
    },
    {
      "id": "ed52ac986455d41803343681c5827c7bd76865a1295bffeadd4f230920fa2858",
      "category": "dependency_scanning",
      "name": "Sign Extension in Storage.c",
      "message": "Sign Extension in Storage.c in pillow",
      "description": "Pillow allows context-dependent attackers to execute arbitrary code by using the \"crafted image file\" approach, related to an \"Insecure Sign Extension\" issue affecting the `ImagingNew` in `Storage.c` component.",
      "cve": "poetry.lock:pillow:gemnasium:96957bc4-9d00-4a2f-b179-24d79eb24631",
      "severity": "High",
      "solution": "Upgrade to latest version.",
      "scanner": {
        "id": "gemnasium",
        "name": "Gemnasium"
      },
      "location": {
        "file": "poetry.lock",
        "dependency": {
          "package": {
            "name": "pillow"
          },
          "version": "3.3.1"
        }
      },
      "identifiers": [
        {
          "type": "gemnasium",
          "name": "Gemnasium-96957bc4-9d00-4a2f-b179-24d79eb24631",
          "value": "96957bc4-9d00-4a2f-b179-24d79eb24631",
          "url": "https://gitlab.com/gitlab-org/security-products/gemnasium-db/-/blob/v1.2.142/pypi/Pillow/CVE-2016-9190.yml"
        },
        {
          "type": "cve",
          "name": "CVE-2016-9190",
          "value": "CVE-2016-9190",
          "url": "https://cve.mitre.org/cgi-bin/cvename.cgi?name=CVE-2016-9190"
        }
      ],
      "links": [
        {
          "url": "http://pillow.readthedocs.io/en/3.4.x/releasenotes/3.3.2.html"
        },
        {
          "url": "https://github.com/python-pillow/Pillow/issues/2105"
        },
        {
          "url": "https://github.com/python-pillow/Pillow/pull/2146/commits/5d8a0be45aad78c5a22c8d099118ee26ef8144af"
        }
      ],
      "details": {
        "vulnerable_package": {
          "type": "text",
          "name": "Vulnerable Package",
          "value": "pillow:3.3.1"
        }
      }
    },
    {
      "id": "be0e024d3b7137d6bc621c7cb436874d43069540ac2d1fdc831284e00978f5b8",
      "category": "dependency_scanning",
      "name": "Buffer Overflow",
      "message": "Buffer Overflow in pillow",
      "description": "In Pillow, there are two Buffer Overflows in `libImaging/TiffDecode.c`.",
      "cve": "poetry.lock:pillow:gemnasium:c8e78ca9-cb61-4a37-b242-9a4112c7023c",
      "severity": "High",
      "solution": "Upgrade to version 7.1.0 or above.",
      "scanner": {
        "id": "gemnasium",
        "name": "Gemnasium"
      },
      "location": {
        "file": "poetry.lock",
        "dependency": {
          "package": {
            "name": "pillow"
          },
          "version": "3.3.1"
        }
      },
      "identifiers": [
        {
          "type": "gemnasium",
          "name": "Gemnasium-c8e78ca9-cb61-4a37-b242-9a4112c7023c",
          "value": "c8e78ca9-cb61-4a37-b242-9a4112c7023c",
          "url": "https://gitlab.com/gitlab-org/security-products/gemnasium-db/-/blob/v1.2.142/pypi/Pillow/CVE-2020-10379.yml"
        },
        {
          "type": "cve",
          "name": "CVE-2020-10379",
          "value": "CVE-2020-10379",
          "url": "https://cve.mitre.org/cgi-bin/cvename.cgi?name=CVE-2020-10379"
        }
      ],
      "links": [
        {
          "url": "https://nvd.nist.gov/vuln/detail/CVE-2020-10379"
        }
      ],
      "details": {
        "vulnerable_package": {
          "type": "text",
          "name": "Vulnerable Package",
          "value": "pillow:3.3.1"
        }
      }
    },
    {
      "id": "2324dcaa171b31ea583bd3f0000cf858e2f6ba03ceab45b289f934f41c580b84",
      "category": "dependency_scanning",
      "name": "Cross-site Scripting",
      "message": "Cross-site Scripting in django",
      "description": "An issue was discovered in Django. The `clickable` Current URL value displayed by the `AdminURLFieldWidget` displays the provided value without validating it as a safe URL. Thus, an unvalidated value stored in the database, or a value provided as a URL query parameter payload, could result in a clickable JavaScript link.",
      "cve": "poetry.lock:django:gemnasium:149e1ab4-7152-4fa8-a40a-9a50a31d6d2f",
      "severity": "Medium",
      "solution": "Upgrade to versions 1.11.21, 2.1.9, 2.2.2 or above.",
      "scanner": {
        "id": "gemnasium",
        "name": "Gemnasium"
      },
      "location": {
        "file": "poetry.lock",
        "dependency": {
          "package": {
            "name": "django"
          },
          "version": "1.11.4"
        }
      },
      "identifiers": [
        {
          "type": "gemnasium",
          "name": "Gemnasium-149e1ab4-7152-4fa8-a40a-9a50a31d6d2f",
          "value": "149e1ab4-7152-4fa8-a40a-9a50a31d6d2f",
          "url": "https://gitlab.com/gitlab-org/security-products/gemnasium-db/-/blob/v1.2.142/pypi/Django/CVE-2019-12308.yml"
        },
        {
          "type": "cve",
          "name": "CVE-2019-12308",
          "value": "CVE-2019-12308",
          "url": "https://cve.mitre.org/cgi-bin/cvename.cgi?name=CVE-2019-12308"
        }
      ],
      "links": [
        {
          "url": "https://docs.djangoproject.com/en/dev/releases/1.11.21/"
        },
        {
          "url": "https://docs.djangoproject.com/en/dev/releases/2.1.9/"
        },
        {
          "url": "https://docs.djangoproject.com/en/dev/releases/2.2.2/"
        },
        {
          "url": "https://docs.djangoproject.com/en/dev/releases/security/"
        },
        {
          "url": "https://github.com/django/django/commit/09186a13d975de6d049f8b3e05484f66b01ece62"
        },
        {
          "url": "https://github.com/django/django/commit/afddabf8428ddc89a332f7a78d0d21eaf2b5a673"
        },
        {
          "url": "https://github.com/django/django/commit/c238701859a52d584f349cce15d56c8e8137c52b"
        },
        {
          "url": "https://github.com/django/django/commit/deeba6d92006999fee9adfbd8be79bf0a59e8008"
        },
        {
          "url": "https://groups.google.com/forum/#!topic/django-announce/GEbHU7YoVz8"
        },
        {
          "url": "https://nvd.nist.gov/vuln/detail/CVE-2019-12308"
        },
        {
          "url": "https://www.djangoproject.com/weblog/2019/jun/03/security-releases/"
        }
      ],
      "details": {
        "vulnerable_package": {
          "type": "text",
          "name": "Vulnerable Package",
          "value": "django:1.11.4"
        }
      }
    },
    {
      "id": "57c352ab2c8bba7391db355a687e9181c89a02939098365b9cd205898e4583ee",
      "category": "dependency_scanning",
      "name": "Incorrect Regular Expression",
      "message": "Incorrect Regular Expression in django",
      "description": "If `django.utils.text.Truncator`'s `chars()` and `words()` methods were passed the `html=True` argument, they were extremely slow to evaluate certain inputs due to a catastrophic backtracking vulnerability in a regular expression. The `chars()` and words()` methods are used to implement the `truncatechars_html` and `truncatewords_html` template filters, which were thus vulnerable.",
      "cve": "poetry.lock:django:gemnasium:1f2c3ac1-b729-4ac9-8c64-1dcbff84250e",
      "severity": "Medium",
      "solution": "Upgrade to versions 1.8.19, 1.11.11, 2.0.3 or above.",
      "scanner": {
        "id": "gemnasium",
        "name": "Gemnasium"
      },
      "location": {
        "file": "poetry.lock",
        "dependency": {
          "package": {
            "name": "django"
          },
          "version": "1.11.4"
        }
      },
      "identifiers": [
        {
          "type": "gemnasium",
          "name": "Gemnasium-1f2c3ac1-b729-4ac9-8c64-1dcbff84250e",
          "value": "1f2c3ac1-b729-4ac9-8c64-1dcbff84250e",
          "url": "https://gitlab.com/gitlab-org/security-products/gemnasium-db/-/blob/v1.2.142/pypi/Django/CVE-2018-7537.yml"
        },
        {
          "type": "cve",
          "name": "CVE-2018-7537",
          "value": "CVE-2018-7537",
          "url": "https://cve.mitre.org/cgi-bin/cvename.cgi?name=CVE-2018-7537"
        }
      ],
      "links": [
        {
          "url": "http://www.securityfocus.com/bid/103357"
        },
        {
          "url": "https://nvd.nist.gov/vuln/detail/CVE-2018-7537"
        },
        {
          "url": "https://www.djangoproject.com/weblog/2018/mar/06/security-releases/"
        }
      ],
      "details": {
        "vulnerable_package": {
          "type": "text",
          "name": "Vulnerable Package",
          "value": "django:1.11.4"
        }
      }
    },
    {
      "id": "e3ea532c59aa6fa3d6adce6f6d383b0de2ccc719b55956c093974da78480718d",
      "category": "dependency_scanning",
      "name": "URL Redirection to Untrusted Site (Open Redirect)",
      "message": "URL Redirection to Untrusted Site (Open Redirect) in django",
      "description": "`django.middleware.common.CommonMiddleware` has an Open Redirect.",
      "cve": "poetry.lock:django:gemnasium:25669e1a-dcaa-4722-adfc-0f089945c95c",
      "severity": "Medium",
      "solution": "Upgrade to versions 1.11.15, 2.0.8 or above.",
      "scanner": {
        "id": "gemnasium",
        "name": "Gemnasium"
      },
      "location": {
        "file": "poetry.lock",
        "dependency": {
          "package": {
            "name": "django"
          },
          "version": "1.11.4"
        }
      },
      "identifiers": [
        {
          "type": "gemnasium",
          "name": "Gemnasium-25669e1a-dcaa-4722-adfc-0f089945c95c",
          "value": "25669e1a-dcaa-4722-adfc-0f089945c95c",
          "url": "https://gitlab.com/gitlab-org/security-products/gemnasium-db/-/blob/v1.2.142/pypi/Django/CVE-2018-14574.yml"
        },
        {
          "type": "cve",
          "name": "CVE-2018-14574",
          "value": "CVE-2018-14574",
          "url": "https://cve.mitre.org/cgi-bin/cvename.cgi?name=CVE-2018-14574"
        }
      ],
      "links": [
        {
          "url": "http://www.securityfocus.com/bid/104970"
        },
        {
          "url": "http://www.securitytracker.com/id/1041403"
        },
        {
          "url": "https://nvd.nist.gov/vuln/detail/CVE-2018-14574"
        },
        {
          "url": "https://www.djangoproject.com/weblog/2018/aug/01/security-releases/"
        }
      ],
      "details": {
        "vulnerable_package": {
          "type": "text",
          "name": "Vulnerable Package",
          "value": "django:1.11.4"
        }
      }
    },
    {
      "id": "546e04e266cd3d785446cad4dff0ad58eaa3a2d8a898b86c8a564ac1b65e2644",
      "category": "dependency_scanning",
      "name": "Improper Input Validation",
      "message": "Improper Input Validation in django",
      "description": "An HTTP request is not redirected to HTTPS when the `SECURE_PROXY_SSL_HEADER` and `SECURE_SSL_REDIRECT` settings are used, and the proxy connects to Django via HTTPS. In other words, `django.http.HttpRequest.scheme` has incorrect behavior when a client uses HTTP.",
      "cve": "poetry.lock:django:gemnasium:42367e41-2c04-4f04-bdaa-ea72d0957ef8",
      "severity": "Medium",
      "solution": "Upgrade to versions 1.11.22, 2.1.10, 2.2.3 or above.",
      "scanner": {
        "id": "gemnasium",
        "name": "Gemnasium"
      },
      "location": {
        "file": "poetry.lock",
        "dependency": {
          "package": {
            "name": "django"
          },
          "version": "1.11.4"
        }
      },
      "identifiers": [
        {
          "type": "gemnasium",
          "name": "Gemnasium-42367e41-2c04-4f04-bdaa-ea72d0957ef8",
          "value": "42367e41-2c04-4f04-bdaa-ea72d0957ef8",
          "url": "https://gitlab.com/gitlab-org/security-products/gemnasium-db/-/blob/v1.2.142/pypi/Django/CVE-2019-12781.yml"
        },
        {
          "type": "cve",
          "name": "CVE-2019-12781",
          "value": "CVE-2019-12781",
          "url": "https://cve.mitre.org/cgi-bin/cvename.cgi?name=CVE-2019-12781"
        }
      ],
      "links": [
        {
          "url": "https://docs.djangoproject.com/en/dev/releases/security/"
        },
        {
          "url": "https://nvd.nist.gov/vuln/detail/CVE-2019-12781"
        },
        {
          "url": "https://www.djangoproject.com/weblog/2019/jul/01/security-releases/"
        }
      ],
      "details": {
        "vulnerable_package": {
          "type": "text",
          "name": "Vulnerable Package",
          "value": "django:1.11.4"
        }
      }
    },
    {
      "id": "f674940e7f800531c891ceb76a1bf635d0b9c059921f072298870abc7896941f",
      "category": "dependency_scanning",
      "name": "Incorrect Regular Expression",
      "message": "Incorrect Regular Expression in django",
      "description": "An issue was discovered in Django. The `django.utils.html.urlize()` function was extremely slow to evaluate certain inputs due to catastrophic backtracking vulnerabilities in two regular expressions. The `urlize()` function is used to implement the urlize and urlizetrunc template filters, which were thus vulnerable.",
      "cve": "poetry.lock:django:gemnasium:483f1247-a680-44c4-b609-c7a3ac65bd82",
      "severity": "Medium",
      "solution": "Upgrade to versions 1.8.19, 1.11.11, 2.0.3 or above.",
      "scanner": {
        "id": "gemnasium",
        "name": "Gemnasium"
      },
      "location": {
        "file": "poetry.lock",
        "dependency": {
          "package": {
            "name": "django"
          },
          "version": "1.11.4"
        }
      },
      "identifiers": [
        {
          "type": "gemnasium",
          "name": "Gemnasium-483f1247-a680-44c4-b609-c7a3ac65bd82",
          "value": "483f1247-a680-44c4-b609-c7a3ac65bd82",
          "url": "https://gitlab.com/gitlab-org/security-products/gemnasium-db/-/blob/v1.2.142/pypi/Django/CVE-2018-7536.yml"
        },
        {
          "type": "cve",
          "name": "CVE-2018-7536",
          "value": "CVE-2018-7536",
          "url": "https://cve.mitre.org/cgi-bin/cvename.cgi?name=CVE-2018-7536"
        }
      ],
      "links": [
        {
          "url": "http://www.securityfocus.com/bid/103361"
        },
        {
          "url": "https://nvd.nist.gov/vuln/detail/CVE-2018-7536"
        },
        {
          "url": "https://www.djangoproject.com/weblog/2018/mar/06/security-releases/"
        }
      ],
      "details": {
        "vulnerable_package": {
          "type": "text",
          "name": "Vulnerable Package",
          "value": "django:1.11.4"
        }
      }
    },
    {
      "id": "72378d8a5708a94657452b4a1ebcb0fb99e5a20f6028c722bf57c79574369a4d",
      "category": "dependency_scanning",
      "name": "Possible XSS in traceback section of technical 500 debug page",
      "message": "Possible XSS in traceback section of technical 500 debug page in django",
      "description": "HTML auto-escaping was disabled in a portion of the template for the technical debug page. Given the right circumstances, this allowed a cross-site scripting attack. This vulnerability shouldn't affect most production sites since you shouldn't run with `DEBUG = True` (which makes this page accessible) in your production settings.",
      "cve": "poetry.lock:django:gemnasium:6162a015-8635-4a15-8d7c-dc9321db366f",
      "severity": "Medium",
      "solution": "Upgrade to versions 1.10.8, 1.11.5 or above.",
      "scanner": {
        "id": "gemnasium",
        "name": "Gemnasium"
      },
      "location": {
        "file": "poetry.lock",
        "dependency": {
          "package": {
            "name": "django"
          },
          "version": "1.11.4"
        }
      },
      "identifiers": [
        {
          "type": "gemnasium",
          "name": "Gemnasium-6162a015-8635-4a15-8d7c-dc9321db366f",
          "value": "6162a015-8635-4a15-8d7c-dc9321db366f",
          "url": "https://gitlab.com/gitlab-org/security-products/gemnasium-db/-/blob/v1.2.142/pypi/Django/CVE-2017-12794.yml"
        },
        {
          "type": "cve",
          "name": "CVE-2017-12794",
          "value": "CVE-2017-12794",
          "url": "https://cve.mitre.org/cgi-bin/cvename.cgi?name=CVE-2017-12794"
        }
      ],
      "links": [
        {
          "url": "http://www.securityfocus.com/bid/100643"
        },
        {
          "url": "http://www.securitytracker.com/id/1039264"
        },
        {
          "url": "https://nvd.nist.gov/vuln/detail/CVE-2017-12794"
        },
        {
          "url": "https://www.djangoproject.com/weblog/2017/sep/05/security-releases/"
        }
      ],
      "details": {
        "vulnerable_package": {
          "type": "text",
          "name": "Vulnerable Package",
          "value": "django:1.11.4"
        }
      }
    },
    {
      "id": "3cc2a765690ddb5843a7cb028589e8afe69f8186136072743a9aeeed7dc364f3",
      "category": "dependency_scanning",
      "name": "Content Spoofing",
      "message": "Content Spoofing in django",
      "description": "Improper Neutralization of Special Elements in Output Used by a Downstream Component issue exists in `django.views.defaults.page_not_found()`, leading to content spoofing (in a 404 error page) if a user fails to recognize that a crafted URL has malicious content.",
      "cve": "poetry.lock:django:gemnasium:94f5e552-ad49-49c7-bd9f-8857bba2354b",
      "severity": "Medium",
      "solution": "Upgrade to versions 1.11.18, 2.0.10, 2.1.5 or above.",
      "scanner": {
        "id": "gemnasium",
        "name": "Gemnasium"
      },
      "location": {
        "file": "poetry.lock",
        "dependency": {
          "package": {
            "name": "django"
          },
          "version": "1.11.4"
        }
      },
      "identifiers": [
        {
          "type": "gemnasium",
          "name": "Gemnasium-94f5e552-ad49-49c7-bd9f-8857bba2354b",
          "value": "94f5e552-ad49-49c7-bd9f-8857bba2354b",
          "url": "https://gitlab.com/gitlab-org/security-products/gemnasium-db/-/blob/v1.2.142/pypi/Django/CVE-2019-3498.yml"
        },
        {
          "type": "cve",
          "name": "CVE-2019-3498",
          "value": "CVE-2019-3498",
          "url": "https://cve.mitre.org/cgi-bin/cvename.cgi?name=CVE-2019-3498"
        }
      ],
      "links": [
        {
          "url": "http://www.securityfocus.com/bid/106453"
        },
        {
          "url": "https://cve.mitre.org/cgi-bin/cvename.cgi?name=CVE-2019-3498"
        },
        {
          "url": "https://cwe.mitre.org/data/definitions/148.html"
        },
        {
          "url": "https://docs.djangoproject.com/en/dev/releases/security/"
        },
        {
          "url": "https://groups.google.com/forum/#!topic/django-announce/VYU7xQQTEPQ"
        },
        {
          "url": "https://lists.debian.org/debian-lts-announce/2019/01/msg00005.html"
        },
        {
          "url": "https://lists.fedoraproject.org/archives/list/package-announce@lists.fedoraproject.org/message/HVXDOVCXLD74SHR2BENGCE2OOYYYWJHZ/"
        },
        {
          "url": "https://nvd.nist.gov/vuln/detail/CVE-2019-3498"
        },
        {
          "url": "https://usn.ubuntu.com/3851-1/"
        },
        {
          "url": "https://www.debian.org/security/2019/dsa-4363"
        },
        {
          "url": "https://www.djangoproject.com/weblog/2019/jan/04/security-releases/"
        }
      ],
      "details": {
        "vulnerable_package": {
          "type": "text",
          "name": "Vulnerable Package",
          "value": "django:1.11.4"
        }
      }
    },
    {
      "id": "65cb84e38f3408777cfee8b42f6f86d6e9575acf850ab8f087731692f1861044",
      "category": "dependency_scanning",
      "name": "Out-of-bounds Read",
      "message": "Out-of-bounds Read in pillow",
      "description": "In `libImaging/PcxDecode.c` in Pillow, an out-of-bounds read can occur when reading PCX files where `state-\u003eshuffle` is instructed to read beyond `state-\u003ebuffer`.",
      "cve": "poetry.lock:pillow:gemnasium:6050e33d-07de-45a5-b2b0-f0aafe3febe1",
      "severity": "Medium",
      "solution": "Upgrade to version 7.1.0 or above.",
      "scanner": {
        "id": "gemnasium",
        "name": "Gemnasium"
      },
      "location": {
        "file": "poetry.lock",
        "dependency": {
          "package": {
            "name": "pillow"
          },
          "version": "3.3.1"
        }
      },
      "identifiers": [
        {
          "type": "gemnasium",
          "name": "Gemnasium-6050e33d-07de-45a5-b2b0-f0aafe3febe1",
          "value": "6050e33d-07de-45a5-b2b0-f0aafe3febe1",
          "url": "https://gitlab.com/gitlab-org/security-products/gemnasium-db/-/blob/v1.2.142/pypi/Pillow/CVE-2020-10378.yml"
        },
        {
          "type": "cve",
          "name": "CVE-2020-10378",
          "value": "CVE-2020-10378",
          "url": "https://cve.mitre.org/cgi-bin/cvename.cgi?name=CVE-2020-10378"
        }
      ],
      "links": [
        {
          "url": "https://nvd.nist.gov/vuln/detail/CVE-2020-10378"
        }
      ],
      "details": {
        "vulnerable_package": {
          "type": "text",
          "name": "Vulnerable Package",
          "value": "pillow:3.3.1"
        }
      }
    },
    {
      "id": "58f8c32a5c6b0996d51a37a333644cd49d1e51e6afe6b22ba95bb5364a4ce9c5",
      "category": "dependency_scanning",
      "name": "Out-of-bounds Read",
      "message": "Out-of-bounds Read in pillow",
      "description": "Pillow has multiple out-of-bounds reads in `libImaging/FliDecode.c`.",
      "cve": "poetry.lock:pillow:gemnasium:9cbe5567-f5fc-40f8-a0d9-190a6f4ea001",
      "severity": "Medium",
      "solution": "Upgrade to version 7.1.0 or above.",
      "scanner": {
        "id": "gemnasium",
        "name": "Gemnasium"
      },
      "location": {
        "file": "poetry.lock",
        "dependency": {
          "package": {
            "name": "pillow"
          },
          "version": "3.3.1"
        }
      },
      "identifiers": [
        {
          "type": "gemnasium",
          "name": "Gemnasium-9cbe5567-f5fc-40f8-a0d9-190a6f4ea001",
          "value": "9cbe5567-f5fc-40f8-a0d9-190a6f4ea001",
          "url": "https://gitlab.com/gitlab-org/security-products/gemnasium-db/-/blob/v1.2.142/pypi/Pillow/CVE-2020-10177.yml"
        },
        {
          "type": "cve",
          "name": "CVE-2020-10177",
          "value": "CVE-2020-10177",
          "url": "https://cve.mitre.org/cgi-bin/cvename.cgi?name=CVE-2020-10177"
        }
      ],
      "links": [
        {
          "url": "https://nvd.nist.gov/vuln/detail/CVE-2020-10177"
        }
      ],
      "details": {
        "vulnerable_package": {
          "type": "text",
          "name": "Vulnerable Package",
          "value": "pillow:3.3.1"
        }
      }
    },
    {
      "id": "4528fe519fb393e0e4e4883ce687a4f5ae307308a3a96d739d53976c91a3104c",
      "category": "dependency_scanning",
      "name": "Integer overflow in Map.c",
      "message": "Integer overflow in Map.c in pillow",
      "description": "Pillow allows context-dependent attackers to obtain sensitive information by using the \"crafted image file\" approach, related to an \"Integer Overflow\" issue affecting the `Image.core.map_buffer` in `map.c` component.",
      "cve": "poetry.lock:pillow:gemnasium:ab754212-345b-403a-8e1c-c5ec66ba0faf",
      "severity": "Medium",
      "solution": "Upgrade to latest version.",
      "scanner": {
        "id": "gemnasium",
        "name": "Gemnasium"
      },
      "location": {
        "file": "poetry.lock",
        "dependency": {
          "package": {
            "name": "pillow"
          },
          "version": "3.3.1"
        }
      },
      "identifiers": [
        {
          "type": "gemnasium",
          "name": "Gemnasium-ab754212-345b-403a-8e1c-c5ec66ba0faf",
          "value": "ab754212-345b-403a-8e1c-c5ec66ba0faf",
          "url": "https://gitlab.com/gitlab-org/security-products/gemnasium-db/-/blob/v1.2.142/pypi/Pillow/CVE-2016-9189.yml"
        },
        {
          "type": "cve",
          "name": "CVE-2016-9189",
          "value": "CVE-2016-9189",
          "url": "https://cve.mitre.org/cgi-bin/cvename.cgi?name=CVE-2016-9189"
        }
      ],
      "links": [
        {
          "url": "http://pillow.readthedocs.io/en/3.4.x/releasenotes/3.3.2.html"
        },
        {
          "url": "https://github.com/python-pillow/Pillow/issues/2105"
        },
        {
          "url": "https://github.com/python-pillow/Pillow/pull/2146/commits/c50ebe6459a131a1ea8ca531f10da616d3ceaa0f"
        }
      ],
      "details": {
        "vulnerable_package": {
          "type": "text",
          "name": "Vulnerable Package",
          "value": "pillow:3.3.1"
        }
      }
    },
    {
      "id": "dc4a9bb5a7bf838b8fdb0d4731b04e68189664503bf89b183ebc84a76911aed7",
      "category": "dependency_scanning",
      "name": "Allocation of Resources Without Limits or Throttling",
      "message": "Allocation of Resources Without Limits or Throttling in pillow",
      "description": "When reading specially crafted invalid image files, the library can either allocate very large amounts of memory or take an extremely long period of time to process the image.",
      "cve": "poetry.lock:pillow:gemnasium:b1ae8cca-4cf2-428f-bf9e-d33dc40f2589",
      "severity": "Medium",
      "solution": "Upgrade to version 6.2.0 or above.",
      "scanner": {
        "id": "gemnasium",
        "name": "Gemnasium"
      },
      "location": {
        "file": "poetry.lock",
        "dependency": {
          "package": {
            "name": "pillow"
          },
          "version": "3.3.1"
        }
      },
      "identifiers": [
        {
          "type": "gemnasium",
          "name": "Gemnasium-b1ae8cca-4cf2-428f-bf9e-d33dc40f2589",
          "value": "b1ae8cca-4cf2-428f-bf9e-d33dc40f2589",
          "url": "https://gitlab.com/gitlab-org/security-products/gemnasium-db/-/blob/v1.2.142/pypi/Pillow/CVE-2019-16865.yml"
        },
        {
          "type": "cve",
          "name": "CVE-2019-16865",
          "value": "CVE-2019-16865",
          "url": "https://cve.mitre.org/cgi-bin/cvename.cgi?name=CVE-2019-16865"
        }
      ],
      "links": [
        {
          "url": "https://nvd.nist.gov/vuln/detail/CVE-2019-16865"
        },
        {
          "url": "https://pillow.readthedocs.io/en/latest/releasenotes/6.2.0.html"
        }
      ],
      "details": {
        "vulnerable_package": {
          "type": "text",
          "name": "Vulnerable Package",
          "value": "pillow:3.3.1"
        }
      }
    },
    {
      "id": "9904525ff47e35ef80227eb1d369c50189e3f23ac5841aea869c465f1edff520",
      "category": "dependency_scanning",
      "name": "Out-of-bounds Read",
      "message": "Out-of-bounds Read in pillow",
      "description": "In `libImaging/Jpeg2KDecode.c` in Pillow, there are multiple out-of-bounds reads via a crafted JP2 file.",
      "cve": "poetry.lock:pillow:gemnasium:fa4f950f-a70f-42da-a81d-c76ceb05a053",
      "severity": "Medium",
      "solution": "Upgrade to version 7.0.0 or above.",
      "scanner": {
        "id": "gemnasium",
        "name": "Gemnasium"
      },
      "location": {
        "file": "poetry.lock",
        "dependency": {
          "package": {
            "name": "pillow"
          },
          "version": "3.3.1"
        }
      },
      "identifiers": [
        {
          "type": "gemnasium",
          "name": "Gemnasium-fa4f950f-a70f-42da-a81d-c76ceb05a053",
          "value": "fa4f950f-a70f-42da-a81d-c76ceb05a053",
          "url": "https://gitlab.com/gitlab-org/security-products/gemnasium-db/-/blob/v1.2.142/pypi/Pillow/CVE-2020-10994.yml"
        },
        {
          "type": "cve",
          "name": "CVE-2020-10994",
          "value": "CVE-2020-10994",
          "url": "https://cve.mitre.org/cgi-bin/cvename.cgi?name=CVE-2020-10994"
        }
      ],
      "links": [
        {
          "url": "https://nvd.nist.gov/vuln/detail/CVE-2020-10994"
        }
      ],
      "details": {
        "vulnerable_package": {
          "type": "text",
          "name": "Vulnerable Package",
          "value": "pillow:3.3.1"
        }
      }
    }
  ],
  "dependency_files": [
    {
      "path": "poetry.lock",
      "package_manager": "poetry",
      "dependencies": [
        {
          "package": {
            "name": "atomicwrites"
          },
          "version": "1.3.0"
        },
        {
          "package": {
            "name": "attrs"
          },
          "version": "19.2.0"
        },
        {
          "package": {
            "name": "beautifulsoup4"
          },
          "version": "4.6.0"
        },
        {
          "package": {
            "name": "colorama"
          },
          "version": "0.4.1"
        },
        {
          "package": {
            "name": "configparser"
          },
          "version": "4.0.2"
        },
        {
          "package": {
            "name": "contextlib2"
          },
          "version": "0.6.0"
        },
        {
          "package": {
            "name": "django"
          },
          "version": "1.11.4"
        },
        {
          "package": {
            "name": "django-contrib-comments"
          },
          "version": "1.8.0"
        },
        {
          "package": {
            "name": "django-js-asset"
          },
          "version": "1.0.0"
        },
        {
          "package": {
            "name": "django-mptt"
          },
          "version": "0.9.0"
        },
        {
          "package": {
            "name": "django-tagging"
          },
          "version": "0.4.6"
        },
        {
          "package": {
            "name": "django-xmlrpc"
          },
          "version": "0.1.8"
        },
        {
          "package": {
            "name": "funcsigs"
          },
          "version": "1.0.2"
        },
        {
          "package": {
            "name": "importlib-metadata"
          },
          "version": "0.23"
        },
        {
          "package": {
            "name": "more-itertools"
          },
          "version": "5.0.0"
        },
        {
          "package": {
            "name": "mots-vides"
          },
          "version": "2015.5.11"
        },
        {
          "package": {
            "name": "pathlib2"
          },
          "version": "2.3.5"
        },
        {
          "package": {
            "name": "pillow"
          },
          "version": "3.3.1"
        },
        {
          "package": {
            "name": "pluggy"
          },
          "version": "0.13.0"
        },
        {
          "package": {
            "name": "py"
          },
          "version": "1.8.0"
        },
        {
          "package": {
            "name": "pyparsing"
          },
          "version": "2.2.0"
        },
        {
          "package": {
            "name": "pytest"
          },
          "version": "3.10.1"
        },
        {
          "package": {
            "name": "pytz"
          },
          "version": "2018.3"
        },
        {
          "package": {
            "name": "regex"
          },
          "version": "2018.02.08"
        },
        {
          "package": {
            "name": "scandir"
          },
          "version": "1.10.0"
        },
        {
          "package": {
            "name": "six"
          },
          "version": "1.12.0"
        },
        {
          "package": {
            "name": "zipp"
          },
          "version": "0.6.0"
        }
      ]
    }
  ],
  "scan": {
    "analyzer": {
      "id": "gemnasium-python",
      "name": "gemnasium-python",
      "url": "https://gitlab.com/gitlab-org/security-products/analyzers/gemnasium",
      "vendor": {
        "name": "GitLab"
      },
      "version": "3.6.0"
    },
    "scanner": {
      "id": "gemnasium-python",
      "name": "gemnasium-python",
      "url": "https://gitlab.com/gitlab-org/security-products/analyzers/gemnasium",
      "vendor": {
        "name": "GitLab"
      },
      "version": "2.25.0"
    },
    "type": "dependency_scanning",
    "start_time": "2022-04-22T16:37:12",
    "end_time": "2022-04-22T16:37:14",
    "status": "success"
  }
}
