{
  "version": "14.0.4",
  "vulnerabilities": [
    {
      "id": "a7f619750b9d71b88eec68499e9e39283ece1c9cbb7c77c44a01fcbd067dcf0b",
      "category": "dependency_scanning",
      "name": "Concurrent Execution using Shared Resource with Improper Synchronization (Race Condition)",
      "message": "Concurrent Execution using Shared Resource with Improper Synchronization (Race Condition) in github.com/astaxie/beego",
      "description": "The File Session Manager in Beego allows local users to read session files because there is a race condition involving file creation within a directory with weak permissions.",
      "cve": "go.sum:github.com/astaxie/beego:gemnasium:5cbdb968-d76c-4285-9597-33fbb14d4ac2",
      "severity": "Medium",
      "solution": "Upgrade to version 1.10.1 or above.",
      "scanner": {
        "id": "gemnasium",
        "name": "Gemnasium"
      },
      "location": {
        "file": "go.sum",
        "dependency": {
          "package": {
            "name": "github.com/astaxie/beego"
          },
          "version": "v1.10.0"
        }
      },
      "identifiers": [
        {
          "type": "gemnasium",
          "name": "Gemnasium-5cbdb968-d76c-4285-9597-33fbb14d4ac2",
          "value": "5cbdb968-d76c-4285-9597-33fbb14d4ac2",
          "url": "https://gitlab.com/gitlab-org/security-products/gemnasium-db/-/blob/new-tag-foobarbaz/go/github.com/astaxie/beego/CVE-2019-16354.yml"
        },
        {
          "type": "cve",
          "name": "CVE-2019-16354",
          "value": "CVE-2019-16354",
          "url": "https://cve.mitre.org/cgi-bin/cvename.cgi?name=CVE-2019-16354"
        }
      ],
      "links": [
        {
          "url": "https://nvd.nist.gov/vuln/detail/CVE-2019-16354"
        }
      ],
      "details": {
        "vulnerable_package": {
          "name": "Vulnerable Package",
          "type": "text",
          "value": "github.com/astaxie/beego:v1.10.0"
        }
      }
    },
    {
      "id": "2cd809728b47d2046e09910523dc347a82a9f8d13366b9189e9640a36671effa",
      "category": "dependency_scanning",
      "name": "Incorrect Default Permissions",
      "message": "Incorrect Default Permissions in github.com/astaxie/beego",
      "description": "The File Session Manager in Beego allows local users to read session files because of weak permissions for individual files.",
      "cve": "go.sum:github.com/astaxie/beego:gemnasium:b9fefee9-c6b2-460d-a61a-e02696c8900b",
      "severity": "Medium",
      "solution": "Upgrade to version 1.10.1 or above.",
      "scanner": {
        "id": "gemnasium",
        "name": "Gemnasium"
      },
      "location": {
        "file": "go.sum",
        "dependency": {
          "package": {
            "name": "github.com/astaxie/beego"
          },
          "version": "v1.10.0"
        }
      },
      "identifiers": [
        {
          "type": "gemnasium",
          "name": "Gemnasium-b9fefee9-c6b2-460d-a61a-e02696c8900b",
          "value": "b9fefee9-c6b2-460d-a61a-e02696c8900b",
          "url": "https://gitlab.com/gitlab-org/security-products/gemnasium-db/-/blob/new-tag-foobarbaz/go/github.com/astaxie/beego/CVE-2019-16355.yml"
        },
        {
          "type": "cve",
          "name": "CVE-2019-16355",
          "value": "CVE-2019-16355",
          "url": "https://cve.mitre.org/cgi-bin/cvename.cgi?name=CVE-2019-16355"
        }
      ],
      "links": [
        {
          "url": "https://nvd.nist.gov/vuln/detail/CVE-2019-16355"
        }
      ],
      "details": {
        "vulnerable_package": {
          "name": "Vulnerable Package",
          "type": "text",
          "value": "github.com/astaxie/beego:v1.10.0"
        }
      }
    },
    {
      "id": "41039ea7ee0f8b99132a8461d136def8cd21862c7fc1d06766c92d3aa2f8ea30",
      "category": "dependency_scanning",
      "name": "fake vuln to demonstrate scan time advisory db updates",
      "message": "fake vuln to demonstrate scan time advisory db updates in gopkg.in/fake-package",
      "description": "fake vuln to demonstrate scan time advisory db updates",
      "cve": "go.sum:gopkg.in/fake-package:gemnasium:f8d39948-1678-453e-87f5-854c53bc2d5b",
      "severity": "Medium",
      "solution": "Upgrade to version 1.3.7 or above.",
      "scanner": {
        "id": "gemnasium",
        "name": "Gemnasium"
      },
      "location": {
        "file": "go.sum",
        "dependency": {
          "package": {
            "name": "gopkg.in/fake-package"
          },
          "version": "v0.0.0-20161208181325-20d25e280405"
        }
      },
      "identifiers": [
        {
          "type": "gemnasium",
          "name": "Gemnasium-f8d39948-1678-453e-87f5-854c53bc2d5b",
          "value": "f8d39948-1678-453e-87f5-854c53bc2d5b",
          "url": "https://gitlab.com/gitlab-org/security-products/gemnasium-db/-/blob/new-tag-foobarbaz/go/gopkg.in/fake-package/fake-vuln.yml"
        }
      ],
      "links": [
        {
          "url": "https://nvd.nist.gov/vuln/detail/fake-vuln"
        }
      ],
      "details": {
        "vulnerable_package": {
          "name": "Vulnerable Package",
          "type": "text",
          "value": "gopkg.in/fake-package:v0.0.0-20161208181325-20d25e280405"
        }
      }
    },
    {
      "id": "0ba4e95b66a902d76a021d540e1e0a3abcdfc65cf7b4329e30961bc455b0b6e3",
      "category": "dependency_scanning",
      "name": "XML Entity Expansion",
      "message": "XML Entity Expansion in gopkg.in/yaml.v2",
      "description": "go-yaml is vulnerable to a Billion Laughs Attack.",
      "cve": "go.sum:gopkg.in/yaml.v2:gemnasium:7368f513-0aa9-4e34-a08d-40ea81f48e0e",
      "severity": "Unknown",
      "solution": "Upgrade to version 2.2.3 or above.",
      "scanner": {
        "id": "gemnasium",
        "name": "Gemnasium"
      },
      "location": {
        "file": "go.sum",
        "dependency": {
          "package": {
            "name": "gopkg.in/yaml.v2"
          },
          "version": "v2.2.2"
        }
      },
      "identifiers": [
        {
          "type": "gemnasium",
          "name": "Gemnasium-7368f513-0aa9-4e34-a08d-40ea81f48e0e",
          "value": "7368f513-0aa9-4e34-a08d-40ea81f48e0e",
          "url": "https://gitlab.com/gitlab-org/security-products/gemnasium-db/-/blob/new-tag-foobarbaz/go/gopkg.in/yaml.v2/GMS-2019-2.yml"
        }
      ],
      "links": [
        {
          "url": "https://github.com/docker/cli/pull/2117"
        }
      ],
      "details": {
        "vulnerable_package": {
          "name": "Vulnerable Package",
          "type": "text",
          "value": "gopkg.in/yaml.v2:v2.2.2"
        }
      }
    }
  ],
  "dependency_files": [
    {
      "path": "go.sum",
      "package_manager": "go",
      "dependencies": [
        {
          "package": {
            "name": "github.com/astaxie/beego"
          },
          "version": "v1.10.0"
        },
        {
          "package": {
            "name": "github.com/davecgh/go-spew"
          },
          "version": "v1.1.1"
        },
        {
          "package": {
            "name": "github.com/konsorten/go-windows-terminal-sequences"
          },
          "version": "v1.0.1"
        },
        {
          "package": {
            "name": "github.com/minio/minio"
          },
          "version": "v0.0.0-20180419184637-5a16671f721f"
        },
        {
          "package": {
            "name": "github.com/minio/minio-go"
          },
          "version": "v6.0.14"
        },
        {
          "package": {
            "name": "github.com/minio/sha256-simd"
          },
          "version": "v0.1.1"
        },
        {
          "package": {
            "name": "github.com/pmezard/go-difflib"
          },
          "version": "v1.0.0"
        },
        {
          "package": {
            "name": "github.com/sirupsen/logrus"
          },
          "version": "v1.4.2"
        },
        {
          "package": {
            "name": "github.com/stretchr/objx"
          },
          "version": "v0.1.1"
        },
        {
          "package": {
            "name": "github.com/stretchr/testify"
          },
          "version": "v1.2.2"
        },
        {
          "package": {
            "name": "golang.org/x/sys"
          },
          "version": "v0.0.0-20190422165155-953cdadca894"
        },
        {
          "package": {
            "name": "golang.org/x/sys"
          },
          "version": "v0.0.0-20191026070338-33540a1f6037"
        },
        {
          "package": {
            "name": "gopkg.in/check.v1"
          },
          "version": "v0.0.0-20161208181325-20d25e280405"
        },
        {
          "package": {
            "name": "gopkg.in/fake-package"
          },
          "version": "v0.0.0-20161208181325-20d25e280405"
        },
        {
          "package": {
            "name": "gopkg.in/yaml.v2"
          },
          "version": "v2.2.2"
        }
      ]
    }
  ],
  "scan": {
    "analyzer": {
      "id": "gemnasium",
      "name": "Gemnasium",
      "url": "https://gitlab.com/gitlab-org/security-products/analyzers/gemnasium",
      "vendor": {
        "name": "GitLab"
      },
      "version": "3.6.0"
    },
    "scanner": {
      "id": "gemnasium",
      "name": "Gemnasium",
      "url": "https://gitlab.com/gitlab-org/security-products/analyzers/gemnasium",
      "vendor": {
        "name": "GitLab"
      },
      "version": "2.33.0"
    },
    "type": "dependency_scanning",
    "start_time": "2022-02-17T02:27:15",
    "end_time": "2022-02-17T02:27:16",
    "status": "success"
  }
}
